/* XPM */
static char *dummy[]={
"32 32 6 1",
"# c #000000",
"a c #000000",
". c #ffffff",
"b c #000000",
"d c #ff5f5f",
"c c None",
".#a#####bbbbbbbbbbbbbbbbbbbbbbbc",
"bbbbbbbbbbbbbbbbbbbbbbbbbbbbbbbb",
"bbddddddddddddddddddddddddddddbb",
"bbddddddddddddddddddddddddddddbb",
"bbddddddddddddddddddddddddddddbb",
"bbddddddddddddddddddddddddddddbb",
"bbddddddddddddddddddddddddddddbb",
"bbddddddddddddddddddddddddddddbb",
"bbddddddddddddddddddddddddddddbb",
"bbddddddddddddddddddddddddddddbb",
"bbddddddddddddddddddddddddddddbb",
"bbddddddddddddddddddddddddddddbb",
"bbddddddddddddddddddddddddddddbb",
"bbddddddddddddddddddddddddddddbb",
"bbddddddddddddddddddddddddddddbb",
"bbddddddddddddddbbbbbbbbbbbbbbbb",
"bbddddddddddddddbbbbbbbbbbbbbbbb",
"bbddddddddddddddddddddddddddddbb",
"bbddddddddddddddddddddddddddddbb",
"bbddddddddddddddddddddddddddddbb",
"bbddddddddddddddddddddddddddddbb",
"bbddddddddddddddddddddddddddddbb",
"bbddddddddddddddddddddddddddddbb",
"bbddddddddddddddddddddddddddddbb",
"bbddddddddddddddddddddddddddddbb",
"bbddddddddddddddddddddddddddddbb",
"bbddddddddddddddddddddddddddddbb",
"bbddddddddddddddddddddddddddddbb",
"bbddddddddddddddddddddddddddddbb",
"bbddddddddddddddddddddddddddddbb",
"bbbbbbbbbbbbbbbbbbbbbbbbbbbbbbbb",
"cbbbbbbbbbbbbbbbbbbbbbbbbbbbbbbc"};
